…
norm_df 
```

    ## # A tibble: 5,000 × 4
    ##    mu_true  iter estimate p.value
    ##      <dbl> <int>    <dbl>   <dbl>
    ##  1       0     1    1.14    0.295
    ##  2       0     2   -0.175   0.868
    ##  3       0     3   -1.23    0.226
    ##  4       0     4    0.901   0.381
    ##  5       0     5    0.337   0.735
    ##  6       0     6   -0.180   0.845
    ##  7       0     7   -0.464   0.587
    ##  8       0     8    0.495   0.634
    ##  9       0     9    0.865   0.320
    ## 10       0    10    0.666   0.526
    ## # ℹ 4,990 more rows
…
# Problem 3

``` r
url = "https://raw.githubusercontent.com/washingtonpost/data-homicides/master/homicide-data.csv"
homi_df = read_csv(url)
homi_df
```

    ## # A tibble: 52,179 × 12
    ##    uid        reported_date victim_last  victim_first victim_race victim_age
    ##    <chr>              <dbl> <chr>        <chr>        <chr>       <chr>     
    ##  1 Alb-000001      20100504 GARCIA       JUAN         Hispanic    78        
    ##  2 Alb-000002      20100216 MONTOYA      CAMERON      Hispanic    17        
    ##  3 Alb-000003      20100601 SATTERFIELD  VIVIANA      White       15        
    ##  4 Alb-000004      20100101 MENDIOLA     CARLOS       Hispanic    32        
    ##  5 Alb-000005      20100102 MULA         VIVIAN       White       72        
    ##  6 Alb-000006      20100126 BOOK         GERALDINE    White       91        
    ##  7 Alb-000007      20100127 MALDONADO    DAVID        Hispanic    52        
    ##  8 Alb-000008      20100127 MALDONADO    CONNIE       Hispanic    52        
    ##  9 Alb-000009      20100130 MARTIN-LEYVA GUSTAVO      White       56        
    ## 10 Alb-000010      20100210 HERRERA      ISRAEL       Hispanic    43        
    ## # ℹ 52,169 more rows
    ## # ℹ 6 more variables: victim_sex <chr>, city <chr>, state <chr>, lat <dbl>,
    ## #   lon <dbl>, disposition <chr>
…
### Data Wrangling

``` r
summary_df = 
  homi_df |> 
  mutate(city_state = paste0(city, ', ', state)) |> 
  group_by(city_state) |> 
  summarise(
    total_num = n(),
    unsolved_num = sum(disposition %in% c("Closed without arrest", "Open/No arrest"))
  )
summary_df
```

    ## # A tibble: 51 × 3
    ##    city_state      total_num unsolved_num
    ##    <chr>               <int>        <int>
    ##  1 Albuquerque, NM       378          146
    ##  2 Atlanta, GA           973          373
    ##  3 Baltimore, MD        2827         1825
    ##  4 Baton Rouge, LA       424          196
    ##  5 Birmingham, AL        800          347
    ##  6 Boston, MA            614          310
    ##  7 Buffalo, NY           521          319
    ##  8 Charlotte, NC         687          206
    ##  9 Chicago, IL          5535         4073
    ## 10 Cincinnati, OH        694          309
    ## # ℹ 41 more rows
…
### `prop,test` for all cities

``` r
prop_test_all = 
  summary_df |> 
  mutate(
    prop_test = map2(unsolved_num, total_num, \(un_n, n) prop.test(un_n, n)),
    prop_test = map(prop_test, broom::tidy)
    ) |> 
  unnest(prop_test) 

prop_test_all
```

    ## # A tibble: 51 × 11
    ##    city_state      total_num unsolved_num estimate statistic   p.value parameter
    ##    <chr>               <int>        <int>    <dbl>     <dbl>     <dbl>     <int>
    ##  1 Albuquerque, NM       378          146    0.386   19.1    1.23e-  5         1
    ##  2 Atlanta, GA           973          373    0.383   52.5    4.32e- 13         1
    ##  3 Baltimore, MD        2827         1825    0.646  239.     6.46e- 54         1
    ##  4 Baton Rouge, LA       424          196    0.462    2.27   1.32e-  1         1
    ##  5 Birmingham, AL        800          347    0.434   13.8    2.05e-  4         1
    ##  6 Boston, MA            614          310    0.505    0.0407 8.40e-  1         1
    ##  7 Buffalo, NY           521          319    0.612   25.8    3.73e-  7         1
    ##  8 Charlotte, NC         687          206    0.300  109.     1.41e- 25         1
    ##  9 Chicago, IL          5535         4073    0.736 1231.     1.28e-269         1
    ## 10 Cincinnati, OH        694          309    0.445    8.11   4.41e-  3         1
    ## # ℹ 41 more rows
    ## # ℹ 4 more variables: conf.low <dbl>, conf.high <dbl>, method <chr>,
    ## #   alternative <chr>

``` r
prop_test_all|> 
  mutate(
    CI = paste0("[", round(conf.low,4),", ",round(conf.high,4),"]"),
    estimate = round(estimate,4)
  ) |> 
  select(city_state, estimate, CI)
```

    ## # A tibble: 51 × 3
    ##    city_state      estimate CI              
    ##    <chr>              <dbl> <chr>           
    ##  1 Albuquerque, NM    0.386 [0.3373, 0.4376]
    ##  2 Atlanta, GA        0.383 [0.3528, 0.4148]
    ##  3 Baltimore, MD      0.646 [0.6276, 0.6632]
    ##  4 Baton Rouge, LA    0.462 [0.4142, 0.511] 
    ##  5 Birmingham, AL     0.434 [0.3992, 0.469] 
    ##  6 Boston, MA         0.505 [0.4646, 0.5451]
    ##  7 Buffalo, NY        0.612 [0.5688, 0.6541]
    ##  8 Charlotte, NC      0.300 [0.2661, 0.3359]
    ##  9 Chicago, IL        0.736 [0.724, 0.7474] 
    ## 10 Cincinnati, OH     0.445 [0.408, 0.4831] 
    ## # ℹ 41 more rows
…
